{
    "type":"FeatureCollection",
    "features":[
       {
          "geometry":{
             "type":"LineString",
             "coordinates":[
                [
                   11.701193,
                   44.3516176
                ],
                [
                   11.6998528,
                   44.3522858
                ],
                [
                   11.6990326,
                   44.3526504
                ]
             ]
          },
          "type":"Feature",
          "properties":{
             "surface":"asphalt",
             "@id":"way/13880682",
             "name":"Via Giovanni ventitreesimo",
             "highway":"residential",
             "short_name":"Via Giovanni XXIII"
          },
          "id":"way/13880682"
       },
       {
          "geometry":{
             "type":"LineString",
             "coordinates":[
                [
                   11.699038,
                   44.351523
                ],
                [
                   11.6998528,
                   44.3522858
                ],
                [
                   11.7005785,
                   44.3530281
                ]
             ]
          },
          "type":"Feature",
          "properties":{
             "@id":"way/13880681",
             "name":"Via Don Giovanni Verit\u00e0",
             "highway":"residential",
             "surface":"asphalt"
          },
          "id":"way/13880681"
       }
    ]
}